BLAGE	1	EH	0.257952302	Embryo
BLAGE	1	EH	1	Hatching/Early_Juv.
BLAGE	1	EH	0.835345388	Late_Juv./Adult
BLAGE	1	CCAP	0.815346795	Embryo
BLAGE	1	CCAP	1	Hatching/Early_Juv.
BLAGE	1	CCAP	0.456505793	Late_Juv./Adult
BLAGE	1	MIP	0.354803767	Embryo
BLAGE	1	MIP	1	Hatching/Early_Juv.
BLAGE	1	MIP	0.466691498	Late_Juv./Adult
BLAGE	1	BURA	0.078684031	Embryo
BLAGE	1	BURA	1	Hatching/Early_Juv.
BLAGE	1	BURA	0.715578546	Late_Juv./Adult
BLAGE	1	BURB	0.084384461	Embryo
BLAGE	1	BURB	1	Hatching/Early_Juv.
BLAGE	1	BURB	0.323914334	Late_Juv./Adult
FOLCA	1	EH	0.17713559	Embryo
FOLCA	1	EH	0.931168882	Hatching/Early_Juv.
FOLCA	1	EH	1	Late_Juv./Adult
FOLCA	1	CCAP	0.611619115	Embryo
FOLCA	1	CCAP	1	Hatching/Early_Juv.
FOLCA	1	CCAP	0.292753856	Late_Juv./Adult
FOLCA	1	MIP	0.387173165	Embryo
FOLCA	1	MIP	1	Hatching/Early_Juv.
FOLCA	1	MIP	0.681287673	Late_Juv./Adult
FOLCA	2	MIP	1	Embryo
FOLCA	2	MIP	0.567373178	Hatching/Early_Juv.
FOLCA	2	MIP	0.305750626	Late_Juv./Adult
FOLCA	1	BURA	0.475929928	Embryo
FOLCA	1	BURA	1	Hatching/Early_Juv.
FOLCA	1	BURA	0.580027457	Late_Juv./Adult
FOLCA	1	BURB	0.645589173	Embryo
FOLCA	1	BURB	1	Hatching/Early_Juv.
FOLCA	1	BURB	0.417838856	Late_Juv./Adult
FOLCA	2	BURB	0.331732764	Embryo
FOLCA	2	BURB	1	Hatching/Early_Juv.
FOLCA	2	BURB	0.990063897	Late_Juv./Adult
HYBDU	1	EH	0.504428533	Embryo
HYBDU	1	EH	1	Hatching/Early_Juv.
HYBDU	1	EH	0.708262842	Late_Juv./Adult
HYBDU	2	EH	0.504428479	Embryo
HYBDU	2	EH	1	Hatching/Early_Juv.
HYBDU	2	EH	0.259566586	Late_Juv./Adult
HYBDU	3	EH	0.231159874	Embryo
HYBDU	3	EH	0	Hatching/Early_Juv.
HYBDU	3	EH	1	Late_Juv./Adult
HYBDU	1	CCAP	1	Embryo
HYBDU	1	CCAP	0.780148558	Hatching/Early_Juv.
HYBDU	1	CCAP	0.935416396	Late_Juv./Adult
HYBDU	1	MIP	0.753226347	Embryo
HYBDU	1	MIP	1	Hatching/Early_Juv.
HYBDU	1	MIP	0.663331849	Late_Juv./Adult
RAMVE	1	EH	0.328511292	Embryo
RAMVE	1	EH	1	Hatching/Early_Juv.
RAMVE	1	EH	0.552891013	Late_Juv./Adult
RAMVE	1	CCAP	0	Embryo
RAMVE	1	CCAP	0.902379356	Hatching/Early_Juv.
RAMVE	1	CCAP	1	Late_Juv./Adult
RAMVE	1	MIP	0.274610651	Embryo
RAMVE	1	MIP	1	Hatching/Early_Juv.
RAMVE	1	MIP	0.833328148	Late_Juv./Adult
SCHME	1	EH	0.694504811	Embryo
SCHME	1	EH	1	Hatching/Early_Juv.
SCHME	1	EH	0.82262146	Late_Juv./Adult
SCHME	2	EH	0.481753432	Embryo
SCHME	2	EH	1	Hatching/Early_Juv.
SCHME	2	EH	0.453025222	Late_Juv./Adult
SCHME	1	CCAP	0.175038553	Embryo
SCHME	1	CCAP	1	Hatching/Early_Juv.
SCHME	1	CCAP	0.983364823	Late_Juv./Adult
SCHME	1	MIP	0.237270947	Embryo
SCHME	1	MIP	0.8014213	Hatching/Early_Juv.
SCHME	1	MIP	1	Late_Juv./Adult
SCHME	1	BUR	0.321400448	Embryo
SCHME	1	BUR	1	Hatching/Early_Juv.
SCHME	1	BUR	0.594951111	Late_Juv./Adult
SACKO	1	EH	0.477090814	Embryo
SACKO	1	EH	1	Hatching/Early_Juv.
SACKO	1	EH	0.355012749	Late_Juv./Adult
SACKO	1	BURA	1	Embryo
SACKO	1	BURA	0	Hatching/Early_Juv.
SACKO	1	BURA	0	Late_Juv./Adult
SACKO	1	BURB	0.406664736	Embryo
SACKO	1	BURB	1	Hatching/Early_Juv.
SACKO	1	BURB	0.195787797	Late_Juv./Adult
