stage1	stage2	median_stage1	median_stage2	wilcox_rank_sum_test	rank	fdr_bh	significant
1_Embryo	3_Metamorphosis/Early_Juv.	0.013777726960896412	1.0	3.178747180274927e-13	1	0.008333333333333333	True
3_Metamorphosis/Early_Juv.	4_Late_Juv./Adult	1.0	0.46577629382303837	3.806792437689271e-09	2	0.016666666666666666	True
2_Larva	3_Metamorphosis/Early_Juv.	0.18713816304177752	1.0	1.0061491604557687e-08	3	0.025	True
1_Embryo	4_Late_Juv./Adult	0.013777726960896412	0.46577629382303837	3.766874972113391e-07	4	0.03333333333333333	True
1_Embryo	2_Larva	0.013777726960896412	0.18713816304177752	1.7629796825115618e-05	5	0.04166666666666667	True
2_Larva	4_Late_Juv./Adult	0.18713816304177752	0.46577629382303837	0.10936916323383933	6	0.05	False
